('D:\\PatientScoreLive\\patient_score_master\\Backend\\PS_CuresDownloader\\build\\getpar\\PKG-00.pkg',
 {'BINARY': 1,
  'DATA': 1,
  'EXECUTABLE': 1,
  'EXTENSION': 1,
  'PYMODULE': 1,
  'PYSOURCE': 1,
  'PYZ': 0},
 [('PYZ-00.pyz',
   'D:\\PatientScoreLive\\patient_score_master\\Backend\\PS_CuresDownloader\\build\\getpar\\PYZ-00.pyz',
   'PYZ'),
  ('struct',
   'D:\\PatientScoreLive\\patient_score_master\\Backend\\PS_CuresDownloader\\build\\getpar\\localpycos\\struct.pyo',
   'PYMODULE'),
  ('pyimod01_os_path',
   'C:\\Users\\devteam\\AppData\\Roaming\\Python\\Python37\\site-packages\\PyInstaller\\loader\\pyimod01_os_path.pyc',
   'PYMODULE'),
  ('pyimod02_archive',
   'C:\\Users\\devteam\\AppData\\Roaming\\Python\\Python37\\site-packages\\PyInstaller\\loader\\pyimod02_archive.pyc',
   'PYMODULE'),
  ('pyimod03_importers',
   'C:\\Users\\devteam\\AppData\\Roaming\\Python\\Python37\\site-packages\\PyInstaller\\loader\\pyimod03_importers.pyc',
   'PYMODULE'),
  ('pyiboot01_bootstrap',
   'C:\\Users\\devteam\\AppData\\Roaming\\Python\\Python37\\site-packages\\PyInstaller\\loader\\pyiboot01_bootstrap.py',
   'PYSOURCE'),
  ('getpar',
   'D:\\PatientScoreLive\\patient_score_master\\Backend\\PS_CuresDownloader\\getpar.py',
   'PYSOURCE'),
  ('python37.dll',
   'c:\\program files (x86)\\microsoft visual '
   'studio\\shared\\python37_64\\python37.dll',
   'BINARY'),
  ('VCRUNTIME140.dll',
   'c:\\program files (x86)\\microsoft visual '
   'studio\\shared\\python37_64\\VCRUNTIME140.dll',
   'BINARY'),
  ('_ssl',
   'c:\\program files (x86)\\microsoft visual '
   'studio\\shared\\python37_64\\DLLs\\_ssl.pyd',
   'EXTENSION'),
  ('pyexpat',
   'c:\\program files (x86)\\microsoft visual '
   'studio\\shared\\python37_64\\DLLs\\pyexpat.pyd',
   'EXTENSION'),
  ('unicodedata',
   'c:\\program files (x86)\\microsoft visual '
   'studio\\shared\\python37_64\\DLLs\\unicodedata.pyd',
   'EXTENSION'),
  ('_hashlib',
   'c:\\program files (x86)\\microsoft visual '
   'studio\\shared\\python37_64\\DLLs\\_hashlib.pyd',
   'EXTENSION'),
  ('_bz2',
   'c:\\program files (x86)\\microsoft visual '
   'studio\\shared\\python37_64\\DLLs\\_bz2.pyd',
   'EXTENSION'),
  ('_lzma',
   'c:\\program files (x86)\\microsoft visual '
   'studio\\shared\\python37_64\\DLLs\\_lzma.pyd',
   'EXTENSION'),
  ('_socket',
   'c:\\program files (x86)\\microsoft visual '
   'studio\\shared\\python37_64\\DLLs\\_socket.pyd',
   'EXTENSION'),
  ('select',
   'c:\\program files (x86)\\microsoft visual '
   'studio\\shared\\python37_64\\DLLs\\select.pyd',
   'EXTENSION'),
  ('_queue',
   'c:\\program files (x86)\\microsoft visual '
   'studio\\shared\\python37_64\\DLLs\\_queue.pyd',
   'EXTENSION'),
  ('_ctypes',
   'c:\\program files (x86)\\microsoft visual '
   'studio\\shared\\python37_64\\DLLs\\_ctypes.pyd',
   'EXTENSION'),
  ('libcrypto-1_1-x64.dll',
   'c:\\program files (x86)\\microsoft visual '
   'studio\\shared\\python37_64\\DLLs\\libcrypto-1_1-x64.dll',
   'BINARY'),
  ('libssl-1_1-x64.dll',
   'c:\\program files (x86)\\microsoft visual '
   'studio\\shared\\python37_64\\DLLs\\libssl-1_1-x64.dll',
   'BINARY'),
  ('base_library.zip',
   'D:\\PatientScoreLive\\patient_score_master\\Backend\\PS_CuresDownloader\\build\\getpar\\base_library.zip',
   'DATA'),
  ('selenium\\webdriver\\firefox\\webdriver.xpi',
   'C:\\Users\\devteam\\AppData\\Roaming\\Python\\Python37\\site-packages\\selenium\\webdriver\\firefox\\webdriver.xpi',
   'DATA'),
  ('selenium\\webdriver\\firefox\\webdriver_prefs.json',
   'C:\\Users\\devteam\\AppData\\Roaming\\Python\\Python37\\site-packages\\selenium\\webdriver\\firefox\\webdriver_prefs.json',
   'DATA'),
  ('selenium\\webdriver\\firefox\\amd64\\x_ignore_nofocus.so',
   'C:\\Users\\devteam\\AppData\\Roaming\\Python\\Python37\\site-packages\\selenium\\webdriver\\firefox\\amd64\\x_ignore_nofocus.so',
   'DATA'),
  ('selenium\\webdriver\\remote\\isDisplayed.js',
   'C:\\Users\\devteam\\AppData\\Roaming\\Python\\Python37\\site-packages\\selenium\\webdriver\\remote\\isDisplayed.js',
   'DATA'),
  ('selenium\\webdriver\\remote\\getAttribute.js',
   'C:\\Users\\devteam\\AppData\\Roaming\\Python\\Python37\\site-packages\\selenium\\webdriver\\remote\\getAttribute.js',
   'DATA'),
  ('certifi\\cacert.pem',
   'C:\\Users\\devteam\\AppData\\Roaming\\Python\\Python37\\site-packages\\certifi\\cacert.pem',
   'DATA'),
  ('selenium\\webdriver\\firefox\\x86\\x_ignore_nofocus.so',
   'C:\\Users\\devteam\\AppData\\Roaming\\Python\\Python37\\site-packages\\selenium\\webdriver\\firefox\\x86\\x_ignore_nofocus.so',
   'DATA'),
  ('getpar.exe.manifest',
   'D:\\PatientScoreLive\\patient_score_master\\Backend\\PS_CuresDownloader\\build\\getpar\\getpar.exe.manifest',
   'BINARY'),
  ('pyi-windows-manifest-filename getpar.exe.manifest', '', 'OPTION')],
 False,
 False,
 False)
