('D:\\patient_score_dev\\PS_DataUploadService\\build\\PS_service\\PKG-00.pkg',
 {'BINARY': 1,
  'DATA': 1,
  'EXECUTABLE': 1,
  'EXTENSION': 1,
  'PYMODULE': 1,
  'PYSOURCE': 1,
  'PYZ': 0},
 [('PYZ-00.pyz',
   'D:\\patient_score_dev\\PS_DataUploadService\\build\\PS_service\\PYZ-00.pyz',
   'PYZ'),
  ('struct',
   'D:\\patient_score_dev\\PS_DataUploadService\\build\\PS_service\\localpycos\\struct.pyo',
   'PYMODULE'),
  ('pyimod01_os_path',
   'C:\\Users\\devteam\\AppData\\Roaming\\Python\\Python37\\site-packages\\PyInstaller\\loader\\pyimod01_os_path.pyc',
   'PYMODULE'),
  ('pyimod02_archive',
   'C:\\Users\\devteam\\AppData\\Roaming\\Python\\Python37\\site-packages\\PyInstaller\\loader\\pyimod02_archive.pyc',
   'PYMODULE'),
  ('pyimod03_importers',
   'C:\\Users\\devteam\\AppData\\Roaming\\Python\\Python37\\site-packages\\PyInstaller\\loader\\pyimod03_importers.pyc',
   'PYMODULE'),
  ('pyiboot01_bootstrap',
   'C:\\Users\\devteam\\AppData\\Roaming\\Python\\Python37\\site-packages\\PyInstaller\\loader\\pyiboot01_bootstrap.py',
   'PYSOURCE'),
  ('PS_service',
   'D:\\patient_score_dev\\PS_DataUploadService\\PS_service.py',
   'PYSOURCE'),
  ('PS_service.exe.manifest',
   'D:\\patient_score_dev\\PS_DataUploadService\\build\\PS_service\\PS_service.exe.manifest',
   'BINARY')],
 True,
 False,
 False)
