([('PS_service.exe',
   'D:\\patient_score_dev\\PS_DataUploadService\\build\\PS_service\\PS_service.exe',
   'EXECUTABLE'),
  ('PS_service.exe.manifest',
   'D:\\patient_score_dev\\PS_DataUploadService\\build\\PS_service\\PS_service.exe.manifest',
   'BINARY'),
  ('VCRUNTIME140.dll',
   'c:\\program files (x86)\\microsoft visual '
   'studio\\shared\\python37_64\\VCRUNTIME140.dll',
   'BINARY'),
  ('python37.dll',
   'c:\\program files (x86)\\microsoft visual '
   'studio\\shared\\python37_64\\python37.dll',
   'BINARY'),
  ('_ssl',
   'c:\\program files (x86)\\microsoft visual '
   'studio\\shared\\python37_64\\DLLs\\_ssl.pyd',
   'EXTENSION'),
  ('pyexpat',
   'c:\\program files (x86)\\microsoft visual '
   'studio\\shared\\python37_64\\DLLs\\pyexpat.pyd',
   'EXTENSION'),
  ('_hashlib',
   'c:\\program files (x86)\\microsoft visual '
   'studio\\shared\\python37_64\\DLLs\\_hashlib.pyd',
   'EXTENSION'),
  ('_lzma',
   'c:\\program files (x86)\\microsoft visual '
   'studio\\shared\\python37_64\\DLLs\\_lzma.pyd',
   'EXTENSION'),
  ('_socket',
   'c:\\program files (x86)\\microsoft visual '
   'studio\\shared\\python37_64\\DLLs\\_socket.pyd',
   'EXTENSION'),
  ('unicodedata',
   'c:\\program files (x86)\\microsoft visual '
   'studio\\shared\\python37_64\\DLLs\\unicodedata.pyd',
   'EXTENSION'),
  ('_bz2',
   'c:\\program files (x86)\\microsoft visual '
   'studio\\shared\\python37_64\\DLLs\\_bz2.pyd',
   'EXTENSION'),
  ('select',
   'c:\\program files (x86)\\microsoft visual '
   'studio\\shared\\python37_64\\DLLs\\select.pyd',
   'EXTENSION'),
  ('_queue',
   'c:\\program files (x86)\\microsoft visual '
   'studio\\shared\\python37_64\\DLLs\\_queue.pyd',
   'EXTENSION'),
  ('_ctypes',
   'c:\\program files (x86)\\microsoft visual '
   'studio\\shared\\python37_64\\DLLs\\_ctypes.pyd',
   'EXTENSION'),
  ('libssl-1_1-x64.dll',
   'c:\\program files (x86)\\microsoft visual '
   'studio\\shared\\python37_64\\DLLs\\libssl-1_1-x64.dll',
   'BINARY'),
  ('libcrypto-1_1-x64.dll',
   'c:\\program files (x86)\\microsoft visual '
   'studio\\shared\\python37_64\\DLLs\\libcrypto-1_1-x64.dll',
   'BINARY'),
  ('base_library.zip',
   'D:\\patient_score_dev\\PS_DataUploadService\\build\\PS_service\\base_library.zip',
   'DATA'),
  ('certifi\\cacert.pem',
   'C:\\Users\\devteam\\AppData\\Roaming\\Python\\Python37\\site-packages\\certifi\\cacert.pem',
   'DATA')],)
