('D:\\patient_score_dev\\PS_DataUploadService\\build\\PS_service\\PYZ-00.pyz',
 [('ntpath',
   'c:\\program files (x86)\\microsoft visual '
   'studio\\shared\\python37_64\\lib\\ntpath.py',
   'PYMODULE'),
  ('_strptime',
   'c:\\program files (x86)\\microsoft visual '
   'studio\\shared\\python37_64\\lib\\_strptime.py',
   'PYMODULE'),
  ('_py_abc',
   'c:\\program files (x86)\\microsoft visual '
   'studio\\shared\\python37_64\\lib\\_py_abc.py',
   'PYMODULE'),
  ('typing',
   'c:\\program files (x86)\\microsoft visual '
   'studio\\shared\\python37_64\\lib\\typing.py',
   'PYMODULE'),
  ('_compat_pickle',
   'c:\\program files (x86)\\microsoft visual '
   'studio\\shared\\python37_64\\lib\\_compat_pickle.py',
   'PYMODULE'),
  ('__future__',
   'c:\\program files (x86)\\microsoft visual '
   'studio\\shared\\python37_64\\lib\\__future__.py',
   'PYMODULE'),
  ('difflib',
   'c:\\program files (x86)\\microsoft visual '
   'studio\\shared\\python37_64\\lib\\difflib.py',
   'PYMODULE'),
  ('ast',
   'c:\\program files (x86)\\microsoft visual '
   'studio\\shared\\python37_64\\lib\\ast.py',
   'PYMODULE'),
  ('inspect',
   'c:\\program files (x86)\\microsoft visual '
   'studio\\shared\\python37_64\\lib\\inspect.py',
   'PYMODULE'),
  ('cmd',
   'c:\\program files (x86)\\microsoft visual '
   'studio\\shared\\python37_64\\lib\\cmd.py',
   'PYMODULE'),
  ('bdb',
   'c:\\program files (x86)\\microsoft visual '
   'studio\\shared\\python37_64\\lib\\bdb.py',
   'PYMODULE'),
  ('opcode',
   'c:\\program files (x86)\\microsoft visual '
   'studio\\shared\\python37_64\\lib\\opcode.py',
   'PYMODULE'),
  ('dis',
   'c:\\program files (x86)\\microsoft visual '
   'studio\\shared\\python37_64\\lib\\dis.py',
   'PYMODULE'),
  ('codeop',
   'c:\\program files (x86)\\microsoft visual '
   'studio\\shared\\python37_64\\lib\\codeop.py',
   'PYMODULE'),
  ('code',
   'c:\\program files (x86)\\microsoft visual '
   'studio\\shared\\python37_64\\lib\\code.py',
   'PYMODULE'),
  ('glob',
   'c:\\program files (x86)\\microsoft visual '
   'studio\\shared\\python37_64\\lib\\glob.py',
   'PYMODULE'),
  ('shlex',
   'c:\\program files (x86)\\microsoft visual '
   'studio\\shared\\python37_64\\lib\\shlex.py',
   'PYMODULE'),
  ('runpy',
   'c:\\program files (x86)\\microsoft visual '
   'studio\\shared\\python37_64\\lib\\runpy.py',
   'PYMODULE'),
  ('importlib._bootstrap',
   'c:\\program files (x86)\\microsoft visual '
   'studio\\shared\\python37_64\\lib\\importlib\\_bootstrap.py',
   'PYMODULE'),
  ('importlib._bootstrap_external',
   'c:\\program files (x86)\\microsoft visual '
   'studio\\shared\\python37_64\\lib\\importlib\\_bootstrap_external.py',
   'PYMODULE'),
  ('importlib.machinery',
   'c:\\program files (x86)\\microsoft visual '
   'studio\\shared\\python37_64\\lib\\importlib\\machinery.py',
   'PYMODULE'),
  ('importlib.util',
   'c:\\program files (x86)\\microsoft visual '
   'studio\\shared\\python37_64\\lib\\importlib\\util.py',
   'PYMODULE'),
  ('importlib.abc',
   'c:\\program files (x86)\\microsoft visual '
   'studio\\shared\\python37_64\\lib\\importlib\\abc.py',
   'PYMODULE'),
  ('importlib',
   'c:\\program files (x86)\\microsoft visual '
   'studio\\shared\\python37_64\\lib\\importlib\\__init__.py',
   'PYMODULE'),
  ('pkgutil',
   'c:\\program files (x86)\\microsoft visual '
   'studio\\shared\\python37_64\\lib\\pkgutil.py',
   'PYMODULE'),
  ('xml',
   'c:\\program files (x86)\\microsoft visual '
   'studio\\shared\\python37_64\\lib\\xml\\__init__.py',
   'PYMODULE'),
  ('xml.sax.expatreader',
   'c:\\program files (x86)\\microsoft visual '
   'studio\\shared\\python37_64\\lib\\xml\\sax\\expatreader.py',
   'PYMODULE'),
  ('xml.sax.saxutils',
   'c:\\program files (x86)\\microsoft visual '
   'studio\\shared\\python37_64\\lib\\xml\\sax\\saxutils.py',
   'PYMODULE'),
  ('urllib.request',
   'c:\\program files (x86)\\microsoft visual '
   'studio\\shared\\python37_64\\lib\\urllib\\request.py',
   'PYMODULE'),
  ('getpass',
   'c:\\program files (x86)\\microsoft visual '
   'studio\\shared\\python37_64\\lib\\getpass.py',
   'PYMODULE'),
  ('nturl2path',
   'c:\\program files (x86)\\microsoft visual '
   'studio\\shared\\python37_64\\lib\\nturl2path.py',
   'PYMODULE'),
  ('ftplib',
   'c:\\program files (x86)\\microsoft visual '
   'studio\\shared\\python37_64\\lib\\ftplib.py',
   'PYMODULE'),
  ('netrc',
   'c:\\program files (x86)\\microsoft visual '
   'studio\\shared\\python37_64\\lib\\netrc.py',
   'PYMODULE'),
  ('http.cookiejar',
   'c:\\program files (x86)\\microsoft visual '
   'studio\\shared\\python37_64\\lib\\http\\cookiejar.py',
   'PYMODULE'),
  ('urllib.response',
   'c:\\program files (x86)\\microsoft visual '
   'studio\\shared\\python37_64\\lib\\urllib\\response.py',
   'PYMODULE'),
  ('urllib.error',
   'c:\\program files (x86)\\microsoft visual '
   'studio\\shared\\python37_64\\lib\\urllib\\error.py',
   'PYMODULE'),
  ('xml.sax',
   'c:\\program files (x86)\\microsoft visual '
   'studio\\shared\\python37_64\\lib\\xml\\sax\\__init__.py',
   'PYMODULE'),
  ('xml.sax.handler',
   'c:\\program files (x86)\\microsoft visual '
   'studio\\shared\\python37_64\\lib\\xml\\sax\\handler.py',
   'PYMODULE'),
  ('xml.sax._exceptions',
   'c:\\program files (x86)\\microsoft visual '
   'studio\\shared\\python37_64\\lib\\xml\\sax\\_exceptions.py',
   'PYMODULE'),
  ('xml.sax.xmlreader',
   'c:\\program files (x86)\\microsoft visual '
   'studio\\shared\\python37_64\\lib\\xml\\sax\\xmlreader.py',
   'PYMODULE'),
  ('xml.parsers',
   'c:\\program files (x86)\\microsoft visual '
   'studio\\shared\\python37_64\\lib\\xml\\parsers\\__init__.py',
   'PYMODULE'),
  ('xml.parsers.expat',
   'c:\\program files (x86)\\microsoft visual '
   'studio\\shared\\python37_64\\lib\\xml\\parsers\\expat.py',
   'PYMODULE'),
  ('plistlib',
   'c:\\program files (x86)\\microsoft visual '
   'studio\\shared\\python37_64\\lib\\plistlib.py',
   'PYMODULE'),
  ('platform',
   'c:\\program files (x86)\\microsoft visual '
   'studio\\shared\\python37_64\\lib\\platform.py',
   'PYMODULE'),
  ('token',
   'c:\\program files (x86)\\microsoft visual '
   'studio\\shared\\python37_64\\lib\\token.py',
   'PYMODULE'),
  ('tokenize',
   'c:\\program files (x86)\\microsoft visual '
   'studio\\shared\\python37_64\\lib\\tokenize.py',
   'PYMODULE'),
  ('urllib.parse',
   'c:\\program files (x86)\\microsoft visual '
   'studio\\shared\\python37_64\\lib\\urllib\\parse.py',
   'PYMODULE'),
  ('tempfile',
   'c:\\program files (x86)\\microsoft visual '
   'studio\\shared\\python37_64\\lib\\tempfile.py',
   'PYMODULE'),
  ('tty',
   'c:\\program files (x86)\\microsoft visual '
   'studio\\shared\\python37_64\\lib\\tty.py',
   'PYMODULE'),
  ('pydoc_data',
   'c:\\program files (x86)\\microsoft visual '
   'studio\\shared\\python37_64\\lib\\pydoc_data\\__init__.py',
   'PYMODULE'),
  ('pydoc_data.topics',
   'c:\\program files (x86)\\microsoft visual '
   'studio\\shared\\python37_64\\lib\\pydoc_data\\topics.py',
   'PYMODULE'),
  ('html.entities',
   'c:\\program files (x86)\\microsoft visual '
   'studio\\shared\\python37_64\\lib\\html\\entities.py',
   'PYMODULE'),
  ('html',
   'c:\\program files (x86)\\microsoft visual '
   'studio\\shared\\python37_64\\lib\\html\\__init__.py',
   'PYMODULE'),
  ('ssl',
   'c:\\program files (x86)\\microsoft visual '
   'studio\\shared\\python37_64\\lib\\ssl.py',
   'PYMODULE'),
  ('http.client',
   'c:\\program files (x86)\\microsoft visual '
   'studio\\shared\\python37_64\\lib\\http\\client.py',
   'PYMODULE'),
  ('mimetypes',
   'c:\\program files (x86)\\microsoft visual '
   'studio\\shared\\python37_64\\lib\\mimetypes.py',
   'PYMODULE'),
  ('socketserver',
   'c:\\program files (x86)\\microsoft visual '
   'studio\\shared\\python37_64\\lib\\socketserver.py',
   'PYMODULE'),
  ('http',
   'c:\\program files (x86)\\microsoft visual '
   'studio\\shared\\python37_64\\lib\\http\\__init__.py',
   'PYMODULE'),
  ('http.server',
   'c:\\program files (x86)\\microsoft visual '
   'studio\\shared\\python37_64\\lib\\http\\server.py',
   'PYMODULE'),
  ('optparse',
   'c:\\program files (x86)\\microsoft visual '
   'studio\\shared\\python37_64\\lib\\optparse.py',
   'PYMODULE'),
  ('uu',
   'c:\\program files (x86)\\microsoft visual '
   'studio\\shared\\python37_64\\lib\\uu.py',
   'PYMODULE'),
  ('email.feedparser',
   'c:\\program files (x86)\\microsoft visual '
   'studio\\shared\\python37_64\\lib\\email\\feedparser.py',
   'PYMODULE'),
  ('email.parser',
   'c:\\program files (x86)\\microsoft visual '
   'studio\\shared\\python37_64\\lib\\email\\parser.py',
   'PYMODULE'),
  ('email',
   'c:\\program files (x86)\\microsoft visual '
   'studio\\shared\\python37_64\\lib\\email\\__init__.py',
   'PYMODULE'),
  ('calendar',
   'c:\\program files (x86)\\microsoft visual '
   'studio\\shared\\python37_64\\lib\\calendar.py',
   'PYMODULE'),
  ('email._parseaddr',
   'c:\\program files (x86)\\microsoft visual '
   'studio\\shared\\python37_64\\lib\\email\\_parseaddr.py',
   'PYMODULE'),
  ('email.utils',
   'c:\\program files (x86)\\microsoft visual '
   'studio\\shared\\python37_64\\lib\\email\\utils.py',
   'PYMODULE'),
  ('email.errors',
   'c:\\program files (x86)\\microsoft visual '
   'studio\\shared\\python37_64\\lib\\email\\errors.py',
   'PYMODULE'),
  ('email.header',
   'c:\\program files (x86)\\microsoft visual '
   'studio\\shared\\python37_64\\lib\\email\\header.py',
   'PYMODULE'),
  ('email._policybase',
   'c:\\program files (x86)\\microsoft visual '
   'studio\\shared\\python37_64\\lib\\email\\_policybase.py',
   'PYMODULE'),
  ('email.base64mime',
   'c:\\program files (x86)\\microsoft visual '
   'studio\\shared\\python37_64\\lib\\email\\base64mime.py',
   'PYMODULE'),
  ('email.encoders',
   'c:\\program files (x86)\\microsoft visual '
   'studio\\shared\\python37_64\\lib\\email\\encoders.py',
   'PYMODULE'),
  ('email.charset',
   'c:\\program files (x86)\\microsoft visual '
   'studio\\shared\\python37_64\\lib\\email\\charset.py',
   'PYMODULE'),
  ('email._encoded_words',
   'c:\\program files (x86)\\microsoft visual '
   'studio\\shared\\python37_64\\lib\\email\\_encoded_words.py',
   'PYMODULE'),
  ('hashlib',
   'c:\\program files (x86)\\microsoft visual '
   'studio\\shared\\python37_64\\lib\\hashlib.py',
   'PYMODULE'),
  ('bisect',
   'c:\\program files (x86)\\microsoft visual '
   'studio\\shared\\python37_64\\lib\\bisect.py',
   'PYMODULE'),
  ('random',
   'c:\\program files (x86)\\microsoft visual '
   'studio\\shared\\python37_64\\lib\\random.py',
   'PYMODULE'),
  ('email.generator',
   'c:\\program files (x86)\\microsoft visual '
   'studio\\shared\\python37_64\\lib\\email\\generator.py',
   'PYMODULE'),
  ('email.iterators',
   'c:\\program files (x86)\\microsoft visual '
   'studio\\shared\\python37_64\\lib\\email\\iterators.py',
   'PYMODULE'),
  ('urllib',
   'c:\\program files (x86)\\microsoft visual '
   'studio\\shared\\python37_64\\lib\\urllib\\__init__.py',
   'PYMODULE'),
  ('email._header_value_parser',
   'c:\\program files (x86)\\microsoft visual '
   'studio\\shared\\python37_64\\lib\\email\\_header_value_parser.py',
   'PYMODULE'),
  ('email.headerregistry',
   'c:\\program files (x86)\\microsoft visual '
   'studio\\shared\\python37_64\\lib\\email\\headerregistry.py',
   'PYMODULE'),
  ('email.quoprimime',
   'c:\\program files (x86)\\microsoft visual '
   'studio\\shared\\python37_64\\lib\\email\\quoprimime.py',
   'PYMODULE'),
  ('email.contentmanager',
   'c:\\program files (x86)\\microsoft visual '
   'studio\\shared\\python37_64\\lib\\email\\contentmanager.py',
   'PYMODULE'),
  ('email.policy',
   'c:\\program files (x86)\\microsoft visual '
   'studio\\shared\\python37_64\\lib\\email\\policy.py',
   'PYMODULE'),
  ('email.message',
   'c:\\program files (x86)\\microsoft visual '
   'studio\\shared\\python37_64\\lib\\email\\message.py',
   'PYMODULE'),
  ('lzma',
   'c:\\program files (x86)\\microsoft visual '
   'studio\\shared\\python37_64\\lib\\lzma.py',
   'PYMODULE'),
  ('gzip',
   'c:\\program files (x86)\\microsoft visual '
   'studio\\shared\\python37_64\\lib\\gzip.py',
   'PYMODULE'),
  ('tarfile',
   'c:\\program files (x86)\\microsoft visual '
   'studio\\shared\\python37_64\\lib\\tarfile.py',
   'PYMODULE'),
  ('py_compile',
   'c:\\program files (x86)\\microsoft visual '
   'studio\\shared\\python37_64\\lib\\py_compile.py',
   'PYMODULE'),
  ('zipfile',
   'c:\\program files (x86)\\microsoft visual '
   'studio\\shared\\python37_64\\lib\\zipfile.py',
   'PYMODULE'),
  ('socket',
   'c:\\program files (x86)\\microsoft visual '
   'studio\\shared\\python37_64\\lib\\socket.py',
   'PYMODULE'),
  ('webbrowser',
   'c:\\program files (x86)\\microsoft visual '
   'studio\\shared\\python37_64\\lib\\webbrowser.py',
   'PYMODULE'),
  ('pydoc',
   'c:\\program files (x86)\\microsoft visual '
   'studio\\shared\\python37_64\\lib\\pydoc.py',
   'PYMODULE'),
  ('pdb',
   'c:\\program files (x86)\\microsoft visual '
   'studio\\shared\\python37_64\\lib\\pdb.py',
   'PYMODULE'),
  ('unittest.util',
   'c:\\program files (x86)\\microsoft visual '
   'studio\\shared\\python37_64\\lib\\unittest\\util.py',
   'PYMODULE'),
  ('unittest.result',
   'c:\\program files (x86)\\microsoft visual '
   'studio\\shared\\python37_64\\lib\\unittest\\result.py',
   'PYMODULE'),
  ('string',
   'c:\\program files (x86)\\microsoft visual '
   'studio\\shared\\python37_64\\lib\\string.py',
   'PYMODULE'),
  ('unittest.case',
   'c:\\program files (x86)\\microsoft visual '
   'studio\\shared\\python37_64\\lib\\unittest\\case.py',
   'PYMODULE'),
  ('unittest.suite',
   'c:\\program files (x86)\\microsoft visual '
   'studio\\shared\\python37_64\\lib\\unittest\\suite.py',
   'PYMODULE'),
  ('unittest.loader',
   'c:\\program files (x86)\\microsoft visual '
   'studio\\shared\\python37_64\\lib\\unittest\\loader.py',
   'PYMODULE'),
  ('unittest.runner',
   'c:\\program files (x86)\\microsoft visual '
   'studio\\shared\\python37_64\\lib\\unittest\\runner.py',
   'PYMODULE'),
  ('unittest.main',
   'c:\\program files (x86)\\microsoft visual '
   'studio\\shared\\python37_64\\lib\\unittest\\main.py',
   'PYMODULE'),
  ('unittest.signals',
   'c:\\program files (x86)\\microsoft visual '
   'studio\\shared\\python37_64\\lib\\unittest\\signals.py',
   'PYMODULE'),
  ('unittest',
   'c:\\program files (x86)\\microsoft visual '
   'studio\\shared\\python37_64\\lib\\unittest\\__init__.py',
   'PYMODULE'),
  ('doctest',
   'c:\\program files (x86)\\microsoft visual '
   'studio\\shared\\python37_64\\lib\\doctest.py',
   'PYMODULE'),
  ('textwrap',
   'c:\\program files (x86)\\microsoft visual '
   'studio\\shared\\python37_64\\lib\\textwrap.py',
   'PYMODULE'),
  ('argparse',
   'c:\\program files (x86)\\microsoft visual '
   'studio\\shared\\python37_64\\lib\\argparse.py',
   'PYMODULE'),
  ('pprint',
   'c:\\program files (x86)\\microsoft visual '
   'studio\\shared\\python37_64\\lib\\pprint.py',
   'PYMODULE'),
  ('pickle',
   'c:\\program files (x86)\\microsoft visual '
   'studio\\shared\\python37_64\\lib\\pickle.py',
   'PYMODULE'),
  ('tracemalloc',
   'c:\\program files (x86)\\microsoft visual '
   'studio\\shared\\python37_64\\lib\\tracemalloc.py',
   'PYMODULE'),
  ('base64',
   'c:\\program files (x86)\\microsoft visual '
   'studio\\shared\\python37_64\\lib\\base64.py',
   'PYMODULE'),
  ('stringprep',
   'c:\\program files (x86)\\microsoft visual '
   'studio\\shared\\python37_64\\lib\\stringprep.py',
   'PYMODULE'),
  ('_compression',
   'c:\\program files (x86)\\microsoft visual '
   'studio\\shared\\python37_64\\lib\\_compression.py',
   'PYMODULE'),
  ('bz2',
   'c:\\program files (x86)\\microsoft visual '
   'studio\\shared\\python37_64\\lib\\bz2.py',
   'PYMODULE'),
  ('stat',
   'c:\\program files (x86)\\microsoft visual '
   'studio\\shared\\python37_64\\lib\\stat.py',
   'PYMODULE'),
  ('genericpath',
   'c:\\program files (x86)\\microsoft visual '
   'studio\\shared\\python37_64\\lib\\genericpath.py',
   'PYMODULE'),
  ('posixpath',
   'c:\\program files (x86)\\microsoft visual '
   'studio\\shared\\python37_64\\lib\\posixpath.py',
   'PYMODULE'),
  ('signal',
   'c:\\program files (x86)\\microsoft visual '
   'studio\\shared\\python37_64\\lib\\signal.py',
   'PYMODULE'),
  ('contextlib',
   'c:\\program files (x86)\\microsoft visual '
   'studio\\shared\\python37_64\\lib\\contextlib.py',
   'PYMODULE'),
  ('_threading_local',
   'c:\\program files (x86)\\microsoft visual '
   'studio\\shared\\python37_64\\lib\\_threading_local.py',
   'PYMODULE'),
  ('threading',
   'c:\\program files (x86)\\microsoft visual '
   'studio\\shared\\python37_64\\lib\\threading.py',
   'PYMODULE'),
  ('selectors',
   'c:\\program files (x86)\\microsoft visual '
   'studio\\shared\\python37_64\\lib\\selectors.py',
   'PYMODULE'),
  ('subprocess',
   'c:\\program files (x86)\\microsoft visual '
   'studio\\shared\\python37_64\\lib\\subprocess.py',
   'PYMODULE'),
  ('struct',
   'c:\\program files (x86)\\microsoft visual '
   'studio\\shared\\python37_64\\lib\\struct.py',
   'PYMODULE'),
  ('gettext',
   'c:\\program files (x86)\\microsoft visual '
   'studio\\shared\\python37_64\\lib\\gettext.py',
   'PYMODULE'),
  ('getopt',
   'c:\\program files (x86)\\microsoft visual '
   'studio\\shared\\python37_64\\lib\\getopt.py',
   'PYMODULE'),
  ('quopri',
   'c:\\program files (x86)\\microsoft visual '
   'studio\\shared\\python37_64\\lib\\quopri.py',
   'PYMODULE'),
  ('copy',
   'c:\\program files (x86)\\microsoft visual '
   'studio\\shared\\python37_64\\lib\\copy.py',
   'PYMODULE'),
  ('datetime',
   'c:\\program files (x86)\\microsoft visual '
   'studio\\shared\\python37_64\\lib\\datetime.py',
   'PYMODULE'),
  ('shutil',
   'c:\\program files (x86)\\microsoft visual '
   'studio\\shared\\python37_64\\lib\\shutil.py',
   'PYMODULE'),
  ('fnmatch',
   'c:\\program files (x86)\\microsoft visual '
   'studio\\shared\\python37_64\\lib\\fnmatch.py',
   'PYMODULE'),
  ('requests',
   'C:\\Users\\devteam\\AppData\\Roaming\\Python\\Python37\\site-packages\\requests\\__init__.py',
   'PYMODULE'),
  ('requests.status_codes',
   'C:\\Users\\devteam\\AppData\\Roaming\\Python\\Python37\\site-packages\\requests\\status_codes.py',
   'PYMODULE'),
  ('requests.structures',
   'C:\\Users\\devteam\\AppData\\Roaming\\Python\\Python37\\site-packages\\requests\\structures.py',
   'PYMODULE'),
  ('requests.compat',
   'C:\\Users\\devteam\\AppData\\Roaming\\Python\\Python37\\site-packages\\requests\\compat.py',
   'PYMODULE'),
  ('http.cookies',
   'c:\\program files (x86)\\microsoft visual '
   'studio\\shared\\python37_64\\lib\\http\\cookies.py',
   'PYMODULE'),
  ('json',
   'c:\\program files (x86)\\microsoft visual '
   'studio\\shared\\python37_64\\lib\\json\\__init__.py',
   'PYMODULE'),
  ('json.encoder',
   'c:\\program files (x86)\\microsoft visual '
   'studio\\shared\\python37_64\\lib\\json\\encoder.py',
   'PYMODULE'),
  ('json.decoder',
   'c:\\program files (x86)\\microsoft visual '
   'studio\\shared\\python37_64\\lib\\json\\decoder.py',
   'PYMODULE'),
  ('json.scanner',
   'c:\\program files (x86)\\microsoft visual '
   'studio\\shared\\python37_64\\lib\\json\\scanner.py',
   'PYMODULE'),
  ('requests.api',
   'C:\\Users\\devteam\\AppData\\Roaming\\Python\\Python37\\site-packages\\requests\\api.py',
   'PYMODULE'),
  ('requests.sessions',
   'C:\\Users\\devteam\\AppData\\Roaming\\Python\\Python37\\site-packages\\requests\\sessions.py',
   'PYMODULE'),
  ('requests.adapters',
   'C:\\Users\\devteam\\AppData\\Roaming\\Python\\Python37\\site-packages\\requests\\adapters.py',
   'PYMODULE'),
  ('urllib3.contrib.socks',
   'C:\\Users\\devteam\\AppData\\Roaming\\Python\\Python37\\site-packages\\urllib3\\contrib\\socks.py',
   'PYMODULE'),
  ('urllib3.util.url',
   'C:\\Users\\devteam\\AppData\\Roaming\\Python\\Python37\\site-packages\\urllib3\\util\\url.py',
   'PYMODULE'),
  ('idna',
   'C:\\Users\\devteam\\AppData\\Roaming\\Python\\Python37\\site-packages\\idna\\__init__.py',
   'PYMODULE'),
  ('idna.core',
   'C:\\Users\\devteam\\AppData\\Roaming\\Python\\Python37\\site-packages\\idna\\core.py',
   'PYMODULE'),
  ('idna.uts46data',
   'C:\\Users\\devteam\\AppData\\Roaming\\Python\\Python37\\site-packages\\idna\\uts46data.py',
   'PYMODULE'),
  ('idna.intranges',
   'C:\\Users\\devteam\\AppData\\Roaming\\Python\\Python37\\site-packages\\idna\\intranges.py',
   'PYMODULE'),
  ('idna.idnadata',
   'C:\\Users\\devteam\\AppData\\Roaming\\Python\\Python37\\site-packages\\idna\\idnadata.py',
   'PYMODULE'),
  ('idna.package_data',
   'C:\\Users\\devteam\\AppData\\Roaming\\Python\\Python37\\site-packages\\idna\\package_data.py',
   'PYMODULE'),
  ('urllib3.packages.rfc3986.misc',
   'C:\\Users\\devteam\\AppData\\Roaming\\Python\\Python37\\site-packages\\urllib3\\packages\\rfc3986\\misc.py',
   'PYMODULE'),
  ('urllib3.packages.rfc3986.compat',
   'C:\\Users\\devteam\\AppData\\Roaming\\Python\\Python37\\site-packages\\urllib3\\packages\\rfc3986\\compat.py',
   'PYMODULE'),
  ('urllib3.packages.rfc3986.normalizers',
   'C:\\Users\\devteam\\AppData\\Roaming\\Python\\Python37\\site-packages\\urllib3\\packages\\rfc3986\\normalizers.py',
   'PYMODULE'),
  ('urllib3.packages.rfc3986.abnf_regexp',
   'C:\\Users\\devteam\\AppData\\Roaming\\Python\\Python37\\site-packages\\urllib3\\packages\\rfc3986\\abnf_regexp.py',
   'PYMODULE'),
  ('urllib3.packages.rfc3986.validators',
   'C:\\Users\\devteam\\AppData\\Roaming\\Python\\Python37\\site-packages\\urllib3\\packages\\rfc3986\\validators.py',
   'PYMODULE'),
  ('urllib3.packages.rfc3986.exceptions',
   'C:\\Users\\devteam\\AppData\\Roaming\\Python\\Python37\\site-packages\\urllib3\\packages\\rfc3986\\exceptions.py',
   'PYMODULE'),
  ('urllib3.packages.rfc3986',
   'C:\\Users\\devteam\\AppData\\Roaming\\Python\\Python37\\site-packages\\urllib3\\packages\\rfc3986\\__init__.py',
   'PYMODULE'),
  ('urllib3.packages.rfc3986.parseresult',
   'C:\\Users\\devteam\\AppData\\Roaming\\Python\\Python37\\site-packages\\urllib3\\packages\\rfc3986\\parseresult.py',
   'PYMODULE'),
  ('urllib3.packages.rfc3986.api',
   'C:\\Users\\devteam\\AppData\\Roaming\\Python\\Python37\\site-packages\\urllib3\\packages\\rfc3986\\api.py',
   'PYMODULE'),
  ('urllib3.packages.rfc3986.iri',
   'C:\\Users\\devteam\\AppData\\Roaming\\Python\\Python37\\site-packages\\urllib3\\packages\\rfc3986\\iri.py',
   'PYMODULE'),
  ('urllib3.packages.rfc3986.uri',
   'C:\\Users\\devteam\\AppData\\Roaming\\Python\\Python37\\site-packages\\urllib3\\packages\\rfc3986\\uri.py',
   'PYMODULE'),
  ('urllib3.packages.rfc3986._mixin',
   'C:\\Users\\devteam\\AppData\\Roaming\\Python\\Python37\\site-packages\\urllib3\\packages\\rfc3986\\_mixin.py',
   'PYMODULE'),
  ('urllib3.packages.six',
   'C:\\Users\\devteam\\AppData\\Roaming\\Python\\Python37\\site-packages\\urllib3\\packages\\six.py',
   'PYMODULE'),
  ('urllib3.packages',
   'C:\\Users\\devteam\\AppData\\Roaming\\Python\\Python37\\site-packages\\urllib3\\packages\\__init__.py',
   'PYMODULE'),
  ('urllib3.packages.ssl_match_hostname',
   'C:\\Users\\devteam\\AppData\\Roaming\\Python\\Python37\\site-packages\\urllib3\\packages\\ssl_match_hostname\\__init__.py',
   'PYMODULE'),
  ('urllib3.packages.ssl_match_hostname._implementation',
   'C:\\Users\\devteam\\AppData\\Roaming\\Python\\Python37\\site-packages\\urllib3\\packages\\ssl_match_hostname\\_implementation.py',
   'PYMODULE'),
  ('ipaddress',
   'c:\\program files (x86)\\microsoft visual '
   'studio\\shared\\python37_64\\lib\\ipaddress.py',
   'PYMODULE'),
  ('urllib3.connectionpool',
   'C:\\Users\\devteam\\AppData\\Roaming\\Python\\Python37\\site-packages\\urllib3\\connectionpool.py',
   'PYMODULE'),
  ('urllib3.util.queue',
   'C:\\Users\\devteam\\AppData\\Roaming\\Python\\Python37\\site-packages\\urllib3\\util\\queue.py',
   'PYMODULE'),
  ('urllib3.util.timeout',
   'C:\\Users\\devteam\\AppData\\Roaming\\Python\\Python37\\site-packages\\urllib3\\util\\timeout.py',
   'PYMODULE'),
  ('urllib3.util.response',
   'C:\\Users\\devteam\\AppData\\Roaming\\Python\\Python37\\site-packages\\urllib3\\util\\response.py',
   'PYMODULE'),
  ('urllib3.util.request',
   'C:\\Users\\devteam\\AppData\\Roaming\\Python\\Python37\\site-packages\\urllib3\\util\\request.py',
   'PYMODULE'),
  ('urllib3.util.connection',
   'C:\\Users\\devteam\\AppData\\Roaming\\Python\\Python37\\site-packages\\urllib3\\util\\connection.py',
   'PYMODULE'),
  ('urllib3.contrib._appengine_environ',
   'C:\\Users\\devteam\\AppData\\Roaming\\Python\\Python37\\site-packages\\urllib3\\contrib\\_appengine_environ.py',
   'PYMODULE'),
  ('urllib3.util.wait',
   'C:\\Users\\devteam\\AppData\\Roaming\\Python\\Python37\\site-packages\\urllib3\\util\\wait.py',
   'PYMODULE'),
  ('urllib3.request',
   'C:\\Users\\devteam\\AppData\\Roaming\\Python\\Python37\\site-packages\\urllib3\\request.py',
   'PYMODULE'),
  ('urllib3.filepost',
   'C:\\Users\\devteam\\AppData\\Roaming\\Python\\Python37\\site-packages\\urllib3\\filepost.py',
   'PYMODULE'),
  ('urllib3.fields',
   'C:\\Users\\devteam\\AppData\\Roaming\\Python\\Python37\\site-packages\\urllib3\\fields.py',
   'PYMODULE'),
  ('queue',
   'c:\\program files (x86)\\microsoft visual '
   'studio\\shared\\python37_64\\lib\\queue.py',
   'PYMODULE'),
  ('urllib3.connection',
   'C:\\Users\\devteam\\AppData\\Roaming\\Python\\Python37\\site-packages\\urllib3\\connection.py',
   'PYMODULE'),
  ('urllib3._collections',
   'C:\\Users\\devteam\\AppData\\Roaming\\Python\\Python37\\site-packages\\urllib3\\_collections.py',
   'PYMODULE'),
  ('urllib3.util.ssl_',
   'C:\\Users\\devteam\\AppData\\Roaming\\Python\\Python37\\site-packages\\urllib3\\util\\ssl_.py',
   'PYMODULE'),
  ('hmac',
   'c:\\program files (x86)\\microsoft visual '
   'studio\\shared\\python37_64\\lib\\hmac.py',
   'PYMODULE'),
  ('urllib3.util.retry',
   'C:\\Users\\devteam\\AppData\\Roaming\\Python\\Python37\\site-packages\\urllib3\\util\\retry.py',
   'PYMODULE'),
  ('urllib3.util',
   'C:\\Users\\devteam\\AppData\\Roaming\\Python\\Python37\\site-packages\\urllib3\\util\\__init__.py',
   'PYMODULE'),
  ('urllib3.response',
   'C:\\Users\\devteam\\AppData\\Roaming\\Python\\Python37\\site-packages\\urllib3\\response.py',
   'PYMODULE'),
  ('urllib3.poolmanager',
   'C:\\Users\\devteam\\AppData\\Roaming\\Python\\Python37\\site-packages\\urllib3\\poolmanager.py',
   'PYMODULE'),
  ('requests._internal_utils',
   'C:\\Users\\devteam\\AppData\\Roaming\\Python\\Python37\\site-packages\\requests\\_internal_utils.py',
   'PYMODULE'),
  ('requests.hooks',
   'C:\\Users\\devteam\\AppData\\Roaming\\Python\\Python37\\site-packages\\requests\\hooks.py',
   'PYMODULE'),
  ('requests.cookies',
   'C:\\Users\\devteam\\AppData\\Roaming\\Python\\Python37\\site-packages\\requests\\cookies.py',
   'PYMODULE'),
  ('dummy_threading',
   'c:\\program files (x86)\\microsoft visual '
   'studio\\shared\\python37_64\\lib\\dummy_threading.py',
   'PYMODULE'),
  ('_dummy_thread',
   'c:\\program files (x86)\\microsoft visual '
   'studio\\shared\\python37_64\\lib\\_dummy_thread.py',
   'PYMODULE'),
  ('requests.auth',
   'C:\\Users\\devteam\\AppData\\Roaming\\Python\\Python37\\site-packages\\requests\\auth.py',
   'PYMODULE'),
  ('requests.models',
   'C:\\Users\\devteam\\AppData\\Roaming\\Python\\Python37\\site-packages\\requests\\models.py',
   'PYMODULE'),
  ('requests.packages',
   'C:\\Users\\devteam\\AppData\\Roaming\\Python\\Python37\\site-packages\\requests\\packages.py',
   'PYMODULE'),
  ('requests.utils',
   'C:\\Users\\devteam\\AppData\\Roaming\\Python\\Python37\\site-packages\\requests\\utils.py',
   'PYMODULE'),
  ('requests.certs',
   'C:\\Users\\devteam\\AppData\\Roaming\\Python\\Python37\\site-packages\\requests\\certs.py',
   'PYMODULE'),
  ('certifi',
   'C:\\Users\\devteam\\AppData\\Roaming\\Python\\Python37\\site-packages\\certifi\\__init__.py',
   'PYMODULE'),
  ('certifi.core',
   'C:\\Users\\devteam\\AppData\\Roaming\\Python\\Python37\\site-packages\\certifi\\core.py',
   'PYMODULE'),
  ('requests.__version__',
   'C:\\Users\\devteam\\AppData\\Roaming\\Python\\Python37\\site-packages\\requests\\__version__.py',
   'PYMODULE'),
  ('urllib3.exceptions',
   'C:\\Users\\devteam\\AppData\\Roaming\\Python\\Python37\\site-packages\\urllib3\\exceptions.py',
   'PYMODULE'),
  ('urllib3.contrib.pyopenssl',
   'C:\\Users\\devteam\\AppData\\Roaming\\Python\\Python37\\site-packages\\urllib3\\contrib\\pyopenssl.py',
   'PYMODULE'),
  ('urllib3.packages.backports.makefile',
   'C:\\Users\\devteam\\AppData\\Roaming\\Python\\Python37\\site-packages\\urllib3\\packages\\backports\\makefile.py',
   'PYMODULE'),
  ('urllib3.packages.backports',
   'C:\\Users\\devteam\\AppData\\Roaming\\Python\\Python37\\site-packages\\urllib3\\packages\\backports\\__init__.py',
   'PYMODULE'),
  ('urllib3.contrib',
   'C:\\Users\\devteam\\AppData\\Roaming\\Python\\Python37\\site-packages\\urllib3\\contrib\\__init__.py',
   'PYMODULE'),
  ('requests.exceptions',
   'C:\\Users\\devteam\\AppData\\Roaming\\Python\\Python37\\site-packages\\requests\\exceptions.py',
   'PYMODULE'),
  ('chardet',
   'C:\\Users\\devteam\\AppData\\Roaming\\Python\\Python37\\site-packages\\chardet\\__init__.py',
   'PYMODULE'),
  ('chardet.version',
   'C:\\Users\\devteam\\AppData\\Roaming\\Python\\Python37\\site-packages\\chardet\\version.py',
   'PYMODULE'),
  ('chardet.universaldetector',
   'C:\\Users\\devteam\\AppData\\Roaming\\Python\\Python37\\site-packages\\chardet\\universaldetector.py',
   'PYMODULE'),
  ('chardet.sbcsgroupprober',
   'C:\\Users\\devteam\\AppData\\Roaming\\Python\\Python37\\site-packages\\chardet\\sbcsgroupprober.py',
   'PYMODULE'),
  ('chardet.langturkishmodel',
   'C:\\Users\\devteam\\AppData\\Roaming\\Python\\Python37\\site-packages\\chardet\\langturkishmodel.py',
   'PYMODULE'),
  ('chardet.hebrewprober',
   'C:\\Users\\devteam\\AppData\\Roaming\\Python\\Python37\\site-packages\\chardet\\hebrewprober.py',
   'PYMODULE'),
  ('chardet.charsetprober',
   'C:\\Users\\devteam\\AppData\\Roaming\\Python\\Python37\\site-packages\\chardet\\charsetprober.py',
   'PYMODULE'),
  ('chardet.langhebrewmodel',
   'C:\\Users\\devteam\\AppData\\Roaming\\Python\\Python37\\site-packages\\chardet\\langhebrewmodel.py',
   'PYMODULE'),
  ('chardet.langthaimodel',
   'C:\\Users\\devteam\\AppData\\Roaming\\Python\\Python37\\site-packages\\chardet\\langthaimodel.py',
   'PYMODULE'),
  ('chardet.langbulgarianmodel',
   'C:\\Users\\devteam\\AppData\\Roaming\\Python\\Python37\\site-packages\\chardet\\langbulgarianmodel.py',
   'PYMODULE'),
  ('chardet.langgreekmodel',
   'C:\\Users\\devteam\\AppData\\Roaming\\Python\\Python37\\site-packages\\chardet\\langgreekmodel.py',
   'PYMODULE'),
  ('chardet.langcyrillicmodel',
   'C:\\Users\\devteam\\AppData\\Roaming\\Python\\Python37\\site-packages\\chardet\\langcyrillicmodel.py',
   'PYMODULE'),
  ('chardet.sbcharsetprober',
   'C:\\Users\\devteam\\AppData\\Roaming\\Python\\Python37\\site-packages\\chardet\\sbcharsetprober.py',
   'PYMODULE'),
  ('chardet.mbcsgroupprober',
   'C:\\Users\\devteam\\AppData\\Roaming\\Python\\Python37\\site-packages\\chardet\\mbcsgroupprober.py',
   'PYMODULE'),
  ('chardet.euctwprober',
   'C:\\Users\\devteam\\AppData\\Roaming\\Python\\Python37\\site-packages\\chardet\\euctwprober.py',
   'PYMODULE'),
  ('chardet.mbcssm',
   'C:\\Users\\devteam\\AppData\\Roaming\\Python\\Python37\\site-packages\\chardet\\mbcssm.py',
   'PYMODULE'),
  ('chardet.chardistribution',
   'C:\\Users\\devteam\\AppData\\Roaming\\Python\\Python37\\site-packages\\chardet\\chardistribution.py',
   'PYMODULE'),
  ('chardet.jisfreq',
   'C:\\Users\\devteam\\AppData\\Roaming\\Python\\Python37\\site-packages\\chardet\\jisfreq.py',
   'PYMODULE'),
  ('chardet.big5freq',
   'C:\\Users\\devteam\\AppData\\Roaming\\Python\\Python37\\site-packages\\chardet\\big5freq.py',
   'PYMODULE'),
  ('chardet.gb2312freq',
   'C:\\Users\\devteam\\AppData\\Roaming\\Python\\Python37\\site-packages\\chardet\\gb2312freq.py',
   'PYMODULE'),
  ('chardet.euckrfreq',
   'C:\\Users\\devteam\\AppData\\Roaming\\Python\\Python37\\site-packages\\chardet\\euckrfreq.py',
   'PYMODULE'),
  ('chardet.euctwfreq',
   'C:\\Users\\devteam\\AppData\\Roaming\\Python\\Python37\\site-packages\\chardet\\euctwfreq.py',
   'PYMODULE'),
  ('chardet.codingstatemachine',
   'C:\\Users\\devteam\\AppData\\Roaming\\Python\\Python37\\site-packages\\chardet\\codingstatemachine.py',
   'PYMODULE'),
  ('chardet.mbcharsetprober',
   'C:\\Users\\devteam\\AppData\\Roaming\\Python\\Python37\\site-packages\\chardet\\mbcharsetprober.py',
   'PYMODULE'),
  ('chardet.big5prober',
   'C:\\Users\\devteam\\AppData\\Roaming\\Python\\Python37\\site-packages\\chardet\\big5prober.py',
   'PYMODULE'),
  ('chardet.cp949prober',
   'C:\\Users\\devteam\\AppData\\Roaming\\Python\\Python37\\site-packages\\chardet\\cp949prober.py',
   'PYMODULE'),
  ('chardet.euckrprober',
   'C:\\Users\\devteam\\AppData\\Roaming\\Python\\Python37\\site-packages\\chardet\\euckrprober.py',
   'PYMODULE'),
  ('chardet.gb2312prober',
   'C:\\Users\\devteam\\AppData\\Roaming\\Python\\Python37\\site-packages\\chardet\\gb2312prober.py',
   'PYMODULE'),
  ('chardet.eucjpprober',
   'C:\\Users\\devteam\\AppData\\Roaming\\Python\\Python37\\site-packages\\chardet\\eucjpprober.py',
   'PYMODULE'),
  ('chardet.jpcntx',
   'C:\\Users\\devteam\\AppData\\Roaming\\Python\\Python37\\site-packages\\chardet\\jpcntx.py',
   'PYMODULE'),
  ('chardet.sjisprober',
   'C:\\Users\\devteam\\AppData\\Roaming\\Python\\Python37\\site-packages\\chardet\\sjisprober.py',
   'PYMODULE'),
  ('chardet.utf8prober',
   'C:\\Users\\devteam\\AppData\\Roaming\\Python\\Python37\\site-packages\\chardet\\utf8prober.py',
   'PYMODULE'),
  ('chardet.latin1prober',
   'C:\\Users\\devteam\\AppData\\Roaming\\Python\\Python37\\site-packages\\chardet\\latin1prober.py',
   'PYMODULE'),
  ('chardet.escprober',
   'C:\\Users\\devteam\\AppData\\Roaming\\Python\\Python37\\site-packages\\chardet\\escprober.py',
   'PYMODULE'),
  ('chardet.escsm',
   'C:\\Users\\devteam\\AppData\\Roaming\\Python\\Python37\\site-packages\\chardet\\escsm.py',
   'PYMODULE'),
  ('chardet.enums',
   'C:\\Users\\devteam\\AppData\\Roaming\\Python\\Python37\\site-packages\\chardet\\enums.py',
   'PYMODULE'),
  ('chardet.charsetgroupprober',
   'C:\\Users\\devteam\\AppData\\Roaming\\Python\\Python37\\site-packages\\chardet\\charsetgroupprober.py',
   'PYMODULE'),
  ('chardet.compat',
   'C:\\Users\\devteam\\AppData\\Roaming\\Python\\Python37\\site-packages\\chardet\\compat.py',
   'PYMODULE'),
  ('urllib3',
   'C:\\Users\\devteam\\AppData\\Roaming\\Python\\Python37\\site-packages\\urllib3\\__init__.py',
   'PYMODULE'),
  ('watchdog.events',
   'C:\\Users\\devteam\\AppData\\Roaming\\Python\\Python37\\site-packages\\watchdog\\events.py',
   'PYMODULE'),
  ('watchdog',
   'C:\\Users\\devteam\\AppData\\Roaming\\Python\\Python37\\site-packages\\watchdog\\__init__.py',
   'PYMODULE'),
  ('watchdog.utils.unicode_paths',
   'C:\\Users\\devteam\\AppData\\Roaming\\Python\\Python37\\site-packages\\watchdog\\utils\\unicode_paths.py',
   'PYMODULE'),
  ('watchdog.utils.platform',
   'C:\\Users\\devteam\\AppData\\Roaming\\Python\\Python37\\site-packages\\watchdog\\utils\\platform.py',
   'PYMODULE'),
  ('watchdog.utils',
   'C:\\Users\\devteam\\AppData\\Roaming\\Python\\Python37\\site-packages\\watchdog\\utils\\__init__.py',
   'PYMODULE'),
  ('watchdog.utils.compat',
   'C:\\Users\\devteam\\AppData\\Roaming\\Python\\Python37\\site-packages\\watchdog\\utils\\compat.py',
   'PYMODULE'),
  ('watchdog.utils.event_backport',
   'C:\\Users\\devteam\\AppData\\Roaming\\Python\\Python37\\site-packages\\watchdog\\utils\\event_backport.py',
   'PYMODULE'),
  ('pathtools.patterns',
   'C:\\Users\\devteam\\AppData\\Roaming\\Python\\Python37\\site-packages\\pathtools\\patterns.py',
   'PYMODULE'),
  ('pathtools',
   'C:\\Users\\devteam\\AppData\\Roaming\\Python\\Python37\\site-packages\\pathtools\\__init__.py',
   'PYMODULE'),
  ('watchdog.observers',
   'C:\\Users\\devteam\\AppData\\Roaming\\Python\\Python37\\site-packages\\watchdog\\observers\\__init__.py',
   'PYMODULE'),
  ('watchdog.observers.read_directory_changes',
   'C:\\Users\\devteam\\AppData\\Roaming\\Python\\Python37\\site-packages\\watchdog\\observers\\read_directory_changes.py',
   'PYMODULE'),
  ('watchdog.observers.winapi',
   'C:\\Users\\devteam\\AppData\\Roaming\\Python\\Python37\\site-packages\\watchdog\\observers\\winapi.py',
   'PYMODULE'),
  ('ctypes.wintypes',
   'c:\\program files (x86)\\microsoft visual '
   'studio\\shared\\python37_64\\lib\\ctypes\\wintypes.py',
   'PYMODULE'),
  ('ctypes',
   'c:\\program files (x86)\\microsoft visual '
   'studio\\shared\\python37_64\\lib\\ctypes\\__init__.py',
   'PYMODULE'),
  ('ctypes._endian',
   'c:\\program files (x86)\\microsoft visual '
   'studio\\shared\\python37_64\\lib\\ctypes\\_endian.py',
   'PYMODULE'),
  ('watchdog.observers.api',
   'C:\\Users\\devteam\\AppData\\Roaming\\Python\\Python37\\site-packages\\watchdog\\observers\\api.py',
   'PYMODULE'),
  ('watchdog.utils.bricks',
   'C:\\Users\\devteam\\AppData\\Roaming\\Python\\Python37\\site-packages\\watchdog\\utils\\bricks.py',
   'PYMODULE'),
  ('watchdog.observers.kqueue',
   'C:\\Users\\devteam\\AppData\\Roaming\\Python\\Python37\\site-packages\\watchdog\\observers\\kqueue.py',
   'PYMODULE'),
  ('watchdog.utils.dirsnapshot',
   'C:\\Users\\devteam\\AppData\\Roaming\\Python\\Python37\\site-packages\\watchdog\\utils\\dirsnapshot.py',
   'PYMODULE'),
  ('pathtools.path',
   'C:\\Users\\devteam\\AppData\\Roaming\\Python\\Python37\\site-packages\\pathtools\\path.py',
   'PYMODULE'),
  ('watchdog.observers.fsevents',
   'C:\\Users\\devteam\\AppData\\Roaming\\Python\\Python37\\site-packages\\watchdog\\observers\\fsevents.py',
   'PYMODULE'),
  ('watchdog.observers.polling',
   'C:\\Users\\devteam\\AppData\\Roaming\\Python\\Python37\\site-packages\\watchdog\\observers\\polling.py',
   'PYMODULE'),
  ('watchdog.observers.inotify',
   'C:\\Users\\devteam\\AppData\\Roaming\\Python\\Python37\\site-packages\\watchdog\\observers\\inotify.py',
   'PYMODULE'),
  ('watchdog.observers.inotify_buffer',
   'C:\\Users\\devteam\\AppData\\Roaming\\Python\\Python37\\site-packages\\watchdog\\observers\\inotify_buffer.py',
   'PYMODULE'),
  ('watchdog.observers.inotify_c',
   'C:\\Users\\devteam\\AppData\\Roaming\\Python\\Python37\\site-packages\\watchdog\\observers\\inotify_c.py',
   'PYMODULE'),
  ('ctypes.util',
   'c:\\program files (x86)\\microsoft visual '
   'studio\\shared\\python37_64\\lib\\ctypes\\util.py',
   'PYMODULE'),
  ('ctypes._aix',
   'c:\\program files (x86)\\microsoft visual '
   'studio\\shared\\python37_64\\lib\\ctypes\\_aix.py',
   'PYMODULE'),
  ('ctypes.macholib.dyld',
   'c:\\program files (x86)\\microsoft visual '
   'studio\\shared\\python37_64\\lib\\ctypes\\macholib\\dyld.py',
   'PYMODULE'),
  ('ctypes.macholib',
   'c:\\program files (x86)\\microsoft visual '
   'studio\\shared\\python37_64\\lib\\ctypes\\macholib\\__init__.py',
   'PYMODULE'),
  ('ctypes.macholib.dylib',
   'c:\\program files (x86)\\microsoft visual '
   'studio\\shared\\python37_64\\lib\\ctypes\\macholib\\dylib.py',
   'PYMODULE'),
  ('ctypes.macholib.framework',
   'c:\\program files (x86)\\microsoft visual '
   'studio\\shared\\python37_64\\lib\\ctypes\\macholib\\framework.py',
   'PYMODULE'),
  ('watchdog.utils.delayed_queue',
   'C:\\Users\\devteam\\AppData\\Roaming\\Python\\Python37\\site-packages\\watchdog\\utils\\delayed_queue.py',
   'PYMODULE'),
  ('logging',
   'c:\\program files (x86)\\microsoft visual '
   'studio\\shared\\python37_64\\lib\\logging\\__init__.py',
   'PYMODULE'),
  ('configparser',
   'c:\\program files (x86)\\microsoft visual '
   'studio\\shared\\python37_64\\lib\\configparser.py',
   'PYMODULE'),
  ('os',
   'c:\\program files (x86)\\microsoft visual '
   'studio\\shared\\python37_64\\lib\\os.py',
   'PYMODULE')])
