('D:\\PatientScoreLive\\patient_score_master\\Backend\\PS_PDFConverter\\dist\\htmltopdf.exe',
 True,
 False,
 False,
 None,
 None,
 False,
 False,
 '<?xml version="1.0" encoding="UTF-8" standalone="yes"?><assembly manifestVersion="1.0" xmlns="urn:schemas-microsoft-com:asm.v1"><assemblyIdentity name="htmltopdf" processorArchitecture="amd64" type="win32" version="1.0.0.0"/><dependency><dependentAssembly><assemblyIdentity language="*" name="Microsoft.Windows.Common-Controls" processorArchitecture="*" publicKeyToken="6595b64144ccf1df" type="win32" version="6.0.0.0"/><compatibility xmlns="urn:schemas-microsoft-com:compatibility.v1"/></dependentAssembly></dependency><compatibility xmlns="urn:schemas-microsoft-com:compatibility.v1"><application><supportedOS Id="{e2011457-1546-43c5-a5fe-008deee3d3f0}"/><supportedOS Id="{35138b9a-5d96-4fbd-8e2d-a2440225f93a}"/><supportedOS Id="{4a2f28e3-53b9-4441-ba9c-d69d4a4a6e38}"/><supportedOS Id="{1f676c76-80e1-4239-95bb-83d0f6d0da78}"/><supportedOS Id="{8e0f7a12-bfb3-4fe8-b9a5-48fd50a15a9a}"/></application></compatibility></assembly>',
 True,
 'htmltopdf.pkg',
 [('PYZ-00.pyz',
   'D:\\PatientScoreLive\\patient_score_master\\Backend\\PS_PDFConverter\\build\\htmltopdf\\PYZ-00.pyz',
   'PYZ'),
  ('struct',
   'D:\\PatientScoreLive\\patient_score_master\\Backend\\PS_PDFConverter\\build\\htmltopdf\\localpycos\\struct.pyo',
   'PYMODULE'),
  ('pyimod01_os_path',
   'C:\\Users\\devteam\\AppData\\Roaming\\Python\\Python37\\site-packages\\PyInstaller\\loader\\pyimod01_os_path.pyc',
   'PYMODULE'),
  ('pyimod02_archive',
   'C:\\Users\\devteam\\AppData\\Roaming\\Python\\Python37\\site-packages\\PyInstaller\\loader\\pyimod02_archive.pyc',
   'PYMODULE'),
  ('pyimod03_importers',
   'C:\\Users\\devteam\\AppData\\Roaming\\Python\\Python37\\site-packages\\PyInstaller\\loader\\pyimod03_importers.pyc',
   'PYMODULE'),
  ('pyiboot01_bootstrap',
   'C:\\Users\\devteam\\AppData\\Roaming\\Python\\Python37\\site-packages\\PyInstaller\\loader\\pyiboot01_bootstrap.py',
   'PYSOURCE'),
  ('htmltopdf',
   'D:\\PatientScoreLive\\patient_score_master\\Backend\\PS_PDFConverter\\htmltopdf.py',
   'PYSOURCE'),
  ('VCRUNTIME140.dll',
   'c:\\program files (x86)\\microsoft visual '
   'studio\\shared\\python37_64\\VCRUNTIME140.dll',
   'BINARY'),
  ('python37.dll',
   'c:\\program files (x86)\\microsoft visual '
   'studio\\shared\\python37_64\\python37.dll',
   'BINARY'),
  ('_ssl',
   'c:\\program files (x86)\\microsoft visual '
   'studio\\shared\\python37_64\\DLLs\\_ssl.pyd',
   'EXTENSION'),
  ('pyexpat',
   'c:\\program files (x86)\\microsoft visual '
   'studio\\shared\\python37_64\\DLLs\\pyexpat.pyd',
   'EXTENSION'),
  ('unicodedata',
   'c:\\program files (x86)\\microsoft visual '
   'studio\\shared\\python37_64\\DLLs\\unicodedata.pyd',
   'EXTENSION'),
  ('_hashlib',
   'c:\\program files (x86)\\microsoft visual '
   'studio\\shared\\python37_64\\DLLs\\_hashlib.pyd',
   'EXTENSION'),
  ('_bz2',
   'c:\\program files (x86)\\microsoft visual '
   'studio\\shared\\python37_64\\DLLs\\_bz2.pyd',
   'EXTENSION'),
  ('_lzma',
   'c:\\program files (x86)\\microsoft visual '
   'studio\\shared\\python37_64\\DLLs\\_lzma.pyd',
   'EXTENSION'),
  ('_socket',
   'c:\\program files (x86)\\microsoft visual '
   'studio\\shared\\python37_64\\DLLs\\_socket.pyd',
   'EXTENSION'),
  ('select',
   'c:\\program files (x86)\\microsoft visual '
   'studio\\shared\\python37_64\\DLLs\\select.pyd',
   'EXTENSION'),
  ('libssl-1_1-x64.dll',
   'c:\\program files (x86)\\microsoft visual '
   'studio\\shared\\python37_64\\DLLs\\libssl-1_1-x64.dll',
   'BINARY'),
  ('libcrypto-1_1-x64.dll',
   'c:\\program files (x86)\\microsoft visual '
   'studio\\shared\\python37_64\\DLLs\\libcrypto-1_1-x64.dll',
   'BINARY'),
  ('base_library.zip',
   'D:\\PatientScoreLive\\patient_score_master\\Backend\\PS_PDFConverter\\build\\htmltopdf\\base_library.zip',
   'DATA'),
  ('htmltopdf.exe.manifest',
   'D:\\PatientScoreLive\\patient_score_master\\Backend\\PS_PDFConverter\\build\\htmltopdf\\htmltopdf.exe.manifest',
   'BINARY'),
  ('pyi-windows-manifest-filename htmltopdf.exe.manifest', '', 'OPTION')],
 [],
 False,
 False,
 1574588095,
 [('run.exe',
   'C:\\Users\\devteam\\AppData\\Roaming\\Python\\Python37\\site-packages\\PyInstaller\\bootloader\\Windows-64bit\\run.exe',
   'EXECUTABLE')])
