('D:\\PatientScoreLive\\patient_score_master\\Backend\\PS_PDFConverter\\build\\htmltopdf\\PKG-00.pkg',
 {'BINARY': 1,
  'DATA': 1,
  'EXECUTABLE': 1,
  'EXTENSION': 1,
  'PYMODULE': 1,
  'PYSOURCE': 1,
  'PYZ': 0},
 [('PYZ-00.pyz',
   'D:\\PatientScoreLive\\patient_score_master\\Backend\\PS_PDFConverter\\build\\htmltopdf\\PYZ-00.pyz',
   'PYZ'),
  ('struct',
   'D:\\PatientScoreLive\\patient_score_master\\Backend\\PS_PDFConverter\\build\\htmltopdf\\localpycos\\struct.pyo',
   'PYMODULE'),
  ('pyimod01_os_path',
   'C:\\Users\\devteam\\AppData\\Roaming\\Python\\Python37\\site-packages\\PyInstaller\\loader\\pyimod01_os_path.pyc',
   'PYMODULE'),
  ('pyimod02_archive',
   'C:\\Users\\devteam\\AppData\\Roaming\\Python\\Python37\\site-packages\\PyInstaller\\loader\\pyimod02_archive.pyc',
   'PYMODULE'),
  ('pyimod03_importers',
   'C:\\Users\\devteam\\AppData\\Roaming\\Python\\Python37\\site-packages\\PyInstaller\\loader\\pyimod03_importers.pyc',
   'PYMODULE'),
  ('pyiboot01_bootstrap',
   'C:\\Users\\devteam\\AppData\\Roaming\\Python\\Python37\\site-packages\\PyInstaller\\loader\\pyiboot01_bootstrap.py',
   'PYSOURCE'),
  ('htmltopdf',
   'D:\\PatientScoreLive\\patient_score_master\\Backend\\PS_PDFConverter\\htmltopdf.py',
   'PYSOURCE'),
  ('VCRUNTIME140.dll',
   'c:\\program files (x86)\\microsoft visual '
   'studio\\shared\\python37_64\\VCRUNTIME140.dll',
   'BINARY'),
  ('python37.dll',
   'c:\\program files (x86)\\microsoft visual '
   'studio\\shared\\python37_64\\python37.dll',
   'BINARY'),
  ('_ssl',
   'c:\\program files (x86)\\microsoft visual '
   'studio\\shared\\python37_64\\DLLs\\_ssl.pyd',
   'EXTENSION'),
  ('pyexpat',
   'c:\\program files (x86)\\microsoft visual '
   'studio\\shared\\python37_64\\DLLs\\pyexpat.pyd',
   'EXTENSION'),
  ('unicodedata',
   'c:\\program files (x86)\\microsoft visual '
   'studio\\shared\\python37_64\\DLLs\\unicodedata.pyd',
   'EXTENSION'),
  ('_hashlib',
   'c:\\program files (x86)\\microsoft visual '
   'studio\\shared\\python37_64\\DLLs\\_hashlib.pyd',
   'EXTENSION'),
  ('_bz2',
   'c:\\program files (x86)\\microsoft visual '
   'studio\\shared\\python37_64\\DLLs\\_bz2.pyd',
   'EXTENSION'),
  ('_lzma',
   'c:\\program files (x86)\\microsoft visual '
   'studio\\shared\\python37_64\\DLLs\\_lzma.pyd',
   'EXTENSION'),
  ('_socket',
   'c:\\program files (x86)\\microsoft visual '
   'studio\\shared\\python37_64\\DLLs\\_socket.pyd',
   'EXTENSION'),
  ('select',
   'c:\\program files (x86)\\microsoft visual '
   'studio\\shared\\python37_64\\DLLs\\select.pyd',
   'EXTENSION'),
  ('libssl-1_1-x64.dll',
   'c:\\program files (x86)\\microsoft visual '
   'studio\\shared\\python37_64\\DLLs\\libssl-1_1-x64.dll',
   'BINARY'),
  ('libcrypto-1_1-x64.dll',
   'c:\\program files (x86)\\microsoft visual '
   'studio\\shared\\python37_64\\DLLs\\libcrypto-1_1-x64.dll',
   'BINARY'),
  ('base_library.zip',
   'D:\\PatientScoreLive\\patient_score_master\\Backend\\PS_PDFConverter\\build\\htmltopdf\\base_library.zip',
   'DATA'),
  ('htmltopdf.exe.manifest',
   'D:\\PatientScoreLive\\patient_score_master\\Backend\\PS_PDFConverter\\build\\htmltopdf\\htmltopdf.exe.manifest',
   'BINARY'),
  ('pyi-windows-manifest-filename htmltopdf.exe.manifest', '', 'OPTION')],
 False,
 False,
 False)
